[{
    "tableTitle": "ARCTIC ENCOUNTERS (LEVELS 1— 4)",
    "dice": 100,
    "tableHeader": ["Dice", "Text"],
    "tableCol": [
      [
        [1], "1 giant owl"
      ],
      [
        [2, 5], "1d6 + 3 kobolds"
      ],
      [
        [6, 8], "1d4 + 3 trappers (commoners)"
      ],
      [
        [9, 10], "1 owl"
      ],
      [
        [11, 12], "2d4 blood hawks"
      ],
      [
        [13, 17], "2d6 bandits"
      ],
      [
        [18, 20], "1d3 winged kobolds with 1d6 kobolds"
      ],
      [
        [21, 25], "The partially eaten carcass ofa mammoth, from which 1d4 weeks of rations can be harvested"
      ],
      [
        [26, 29], "2d8 hunters (tribal warriors)"
      ],
      [
        [30, 35], "1 half-ogre"
      ],
      [
        [36, 40], "Single-file tracks in the snow that stop abruptly"
      ],
      [
        [41, 45], "1d3 ice mephits"
      ],
      [
        [46, 50], "1 brown bear"
      ],
      [
        [51, 53], "1d6 + 1 orcs"
      ],
      [
        [54, 55], "1 polar bear"
      ],
      [
        [56, 57], "1d6 scouts"
      ],
      [
        [58, 60], "1 saber-toothed tiger"
      ],
      [
        [61, 65], "A frozen pond with a jagged hole in the ice that appears recently made"
      ],
      [
        [66, 68], "1 berserker"
      ],
      [
        [69, 70], "1 ogre"
      ],
      [
        [71, 72], "1 griffon"
      ],
      [
        [73, 75], "1 druid"
      ],
      [
        [76, 80], "3d4 refugees (commoners) fleeing from orcs"
      ],
      [
        [81], "1d3 veterans"
      ],
      [
        [82], "1d4 orogs"
      ],
      [
        [83], "2 brown bears"
      ],
      [
        [84], "1 are Eye ofGruumsh with 2d8 orcs"
      ],
      [
        [85], "1d3 winter wolves"
      ],
      [
        [86, 87], "1d4 yetis"
      ],
      [
        [88], "1 half-ogre"
      ],
      [
        [89], "1d3 manticores"
      ],
      [
        [90], "1 bandit captain with 2d6 bandits"
      ],
      [
        [91], "1 revenant"
      ],
      [
        [92, 93], "1 troll"
      ],
      [
        [94, 95], "1 werebear"
      ],
      [
        [96, 97], "1 young remorhaz"
      ],
      [
        [98], "1 mammoth"
      ],
      [
        [99], "1 young white dragon"
      ],
      [
        [100], "1 frost giant"
      ]
    ]
  },

  {
    "tableTitle": "ARCTIC ENCOUNTERS (LEVELS 5— 10)",
    "dice": 100,
    "tableHeader": ["Dice", "Text"],
    "tableCol": [
      [
        [1, 5], "2 saber-toothed tigers"
      ],
      [
        [6, 7], "1d4 half-ogres"
      ],
      [
        [8, 10], "1d3 + 1 brown bears"
      ],
      [
        [11, 15], "1d3 polar bears"
      ],
      [
        [16, 20], "2d4 berserkers"
      ],
      [
        [21, 25], "A half-orc druid tending to an injured polar bear. If the characters assist the druid, she gives them a vial ofantitoxin."
      ],
      [
        [26, 30], "2d8 scouts"
      ],
      [
        [31, 35], "2d4 ice mephits"
      ],
      [
        [36, 40], "2d6 +1 zombies aboard a galleon trapped in the ice. Searching the ship yields 2d20 days of rations."
      ],
      [
        [41, 45], "1 manticore-"
      ],
      [
        [46, 50], "2d6 + 3 orcs"
      ],
      [
        [51, 53], "1d6 + 2 ogres"
      ],
      [
        [54, 55], "2d4 griffons"
      ],
      [
        [56, 57], "1d4 veterans"
      ],
      [
        [53, 60], "1 bandit captain with 1 druid. 1d3 berserkers, and 2d10 + 5 bandits"
      ],
      [
        [61, 65], "1d4 hours ofextrerne cold (see chapter 5 ofthe Dungeon Master's Guide)"
      ],
      [
        [66, 63], "1 young remorhaz"
      ],
      [
        [69, 72], "1 orc Eye of Gruumsh with 1d6 orogs and 2d8 + 6 orcs"
      ],
      [
        [73, 75], "1 revenant"
      ],
      [
        [76, 80], "A howl that echoes over the land for 1d3 minutes"
      ],
      [
        [81, 82], "1d3 mammoths"
      ],
      [
        [33, 84], "1 young white dragon"
      ],
      [
        [35, 86], "2d4 winter wolves"
      ],
      [
        [37, 38], "1d6 + 2 yetis"
      ],
      [
        [39, 90], "1d2 frost giants"
      ],
      [
        [91, 92], "1d3 werebears"
      ],
      [
        [93, 94], "1d4 trolls"
      ],
      [
        [95, 96], "1 abominable yeti"
      ],
      [
        [97, 98], "1 remorhaz"
      ],
      [
        [99], "1 roc"
      ],
      [
        [100], "2d4 young remorhazes"
      ]
    ]
  },

  {
    "tableTitle": "ARCTIC ENCOUNTERS (LEVELS 11— 16)",
    "dice": 100,
    "tableHeader": ["Dice", "Text"],
    "tableCol": [
      [
        [1], "1 abominable yeti"
      ],
      [
        [2, 4], "1d6 revenants"
      ],
      [
        [5, 10], "1d4 + 1 werebears"
      ],
      [
        [11, 20], "1d3 young white dragons"
      ],
      [
        [21, 25], "A blizzard that reduces visibility to 5 feet for 1d6 hours"
      ],
      [
        [26, 35], "1 roC"
      ],
      [
        [36, 40], "A herd of3d20 + 60 caribou (deer) moving through the snow"
      ],
      [
        [41, 50], "1d4 mammoths"
      ],
      [
        [51, 60], "1d3 + 1 trolls"
      ],
      [
        [61, 65], "A mile-wide frozen lake in which the preserved corpses of strange creatures can be seen"
      ],
      [
        [66, 75], "2d4 young remorhazes"
      ],
      [
        [76, 80], "A crumbling ice castle littered with the frozen bodies of blue-skinned humanoids"
      ],
      [
        [81, 90], "1 adult white dragon"
      ],
      [
        [91, 96], "1d8 + 1 frost giants"
      ],
      [
        [97, 99], "1d4 remorhazes"
      ],
      [
        [100], "1 ancient white dragon"
      ]
    ]
  },

  {
    "tableTitle": "ARCTIC ENCOUNTERS (LEVELS 17 — 20)",
    "dice": 100,
    "tableHeader": ["Dice", "Text"],
    "tableCol": [
      [
        [1, 2], "2d10 revenants"
      ],
      [
        [3, 4], "2d8 trolls"
      ],
      [
        [5, 6], "2d 10 werebears"
      ],
      [
        [7, 8], "1 frost giant"
      ],
      [
        [9, 10], "2d4 young remorhazes"
      ],
      [
        [11, 20], "1d4 frost giants"
      ],
      [
        [21, 25], "A Circular patch of black ice on the ground. The air temperature around the patch is warmer than in the surrounding area. and characters who inspect the ice find bits ofmachinery frozen within."
      ],
      [
        [26, 35], "1 ancient white dragon"
      ],
      [
        [36, 40], "An adventurer frozen 6 feet under the ice; 50% chance the corpse has a rare magic item ofthe DM’S choice"
      ],
      [
        [41, 50], "1d3 abominable yetis"
      ],
      [
        [51, 60], "1d4 remorhazes"
      ],
      [
        [61, 65], "A BOO—foot-high wall of ice that is 300 feet thick and spread across 1d4 miles"
      ],
      [
        [66, 75], "1d4 recs"
      ],
      [
        [76, 80], "The likeness ofa stern woman with long, flowing hair, carved into the side ofa mountain"
      ],
      [
        [81, 90], "1d10 frost giants with 2d4 polar bears"
      ],
      [
        [91, 96], "1d3 adult white dragons"
      ],
      [
        [97, 99], "2d4 abominable yetis"
      ],
      [
        [100], "1 ancient white dragon with 1d3 young white dragons"
      ]
    ]
  }
]
